\relax 
\@writefile{toc}{\contentsline {section}{\numberline {1}Introduction}{1}}
\@writefile{toc}{\contentsline {section}{\numberline {2}Non-self-adjoint system}{2}}
\newlabel{eq:forward0}{{7}{2}}
\newlabel{eq:forward1}{{8}{2}}
\newlabel{eq:adjoint1}{{13}{2}}
\newlabel{eq:dv}{{18}{2}}
\newlabel{eq:deps}{{19}{2}}
\newlabel{eq:ddel}{{20}{2}}
\@writefile{toc}{\contentsline {section}{\numberline {3}Self-adjoint system}{3}}
\newlabel{eq:forward2}{{22}{3}}
\@writefile{toc}{\contentsline {section}{\numberline {4}Another self-adjoint system}{4}}
\newlabel{eq:forward3}{{45}{4}}
\newlabel{eq:adjoint3}{{47}{5}}
\newlabel{eq:forward4}{{50}{5}}
\@writefile{lof}{\contentsline {figure}{\numberline {1}{\ignorespaces Staggered grids for system 50\hbox {}.}}{6}}
\newlabel{fig:grid}{{1}{6}}
\@writefile{toc}{\contentsline {section}{\numberline {5}Non-self-adjoint but stable system}{6}}
\newlabel{eq:forward5}{{57}{6}}
\newlabel{eq:adjoint5}{{60}{6}}
\newlabel{eq:abcd1}{{69}{7}}
\newlabel{eq:abcd2}{{70}{7}}
\newlabel{eq:abcd3}{{71}{7}}
\newlabel{eq:abcd4}{{72}{7}}
\newlabel{eq:abcd5}{{73}{7}}
\@writefile{toc}{\contentsline {subsection}{\numberline {5.1}Case 1: $a_1=b_1=0$}{7}}
\newlabel{eq:forward51}{{74}{7}}
\@writefile{toc}{\contentsline {subsubsection}{\numberline {5.1.1}$a_2b_2\not =0$ and $c_2d_2\not =0$}{7}}
\newlabel{eq:forward511}{{75}{7}}
\newlabel{eq:forward512}{{76}{8}}
\@writefile{toc}{\contentsline {subsubsection}{\numberline {5.1.2}$a_2b_2\not =0$ and $c_2d_2=0$}{8}}
\@writefile{toc}{\contentsline {subsubsection}{\numberline {5.1.3}$a_2b_2=0$ and $c_2d_2\not =0$}{8}}
\@writefile{toc}{\contentsline {subsubsection}{\numberline {5.1.4}$a_2b_2=c_2d_2=0$}{8}}
\newlabel{eq:forward513}{{87}{9}}
\newlabel{eq:forward514}{{91}{9}}
\newlabel{eq:forward515}{{92}{9}}
\@writefile{toc}{\contentsline {subsection}{\numberline {5.2}Case 2: $a_1=c_1=0$}{9}}
\@writefile{toc}{\contentsline {subsection}{\numberline {5.3}Case 3: $b_1=d_1=0$}{9}}
\newlabel{eq:forward52}{{93}{9}}
\@writefile{toc}{\contentsline {subsubsection}{\numberline {5.3.1}$a_2b_2\not =0$ and $c_2d_2\not =0$}{9}}
\newlabel{eq:forward521}{{94}{9}}
\newlabel{eq:forward522}{{95}{9}}
\@writefile{toc}{\contentsline {subsubsection}{\numberline {5.3.2}$a_2b_2\not =0$ and $c_2d_2=0$}{10}}
\@writefile{toc}{\contentsline {subsubsection}{\numberline {5.3.3}$a_2b_2=0$ and $c_2d_2\not =0$}{10}}
\@writefile{toc}{\contentsline {subsubsection}{\numberline {5.3.4}$a_2b_2=c_2d_2=0$}{10}}
\newlabel{eq:forward523}{{106}{10}}
\newlabel{eq:forward524}{{107}{10}}
\newlabel{eq:forward525}{{111}{11}}
\@writefile{toc}{\contentsline {subsection}{\numberline {5.4}Case 4: $c_1=d_1=0$}{11}}
\@writefile{toc}{\contentsline {subsection}{\numberline {5.5}Case 5: non-zero coefficients}{11}}
\@writefile{toc}{\contentsline {section}{\numberline {6}Summary}{13}}
